stm32wbxx_ll_exti.h:461:22:LL_EXTI_DisableIT_0_31	16	static
stm32wbxx_ll_exti.h:530:22:LL_EXTI_DisableIT_32_63	16	static
stm32wbxx_ll_rcc.h:1562:22:LL_RCC_HSI48_Enable	4	static
stm32wbxx_ll_rcc.h:1582:26:LL_RCC_HSI48_IsReady	4	static
stm32wbxx_ll_rcc.h:1611:22:LL_RCC_LSE_Enable	4	static
stm32wbxx_ll_rcc.h:1713:26:LL_RCC_LSE_IsReady	4	static
stm32wbxx_ll_rcc.h:2086:22:LL_RCC_SetRFWKPClockSource	16	static
stm32wbxx_ll_rcc.h:2841:22:LL_RCC_SetRTCClockSource	16	static
stm32wbxx_ll_rcc.h:2865:22:LL_RCC_EnableRTC	4	static
stm32wbxx_ll_rcc.h:2895:22:LL_RCC_ForceBackupDomainReset	4	static
stm32wbxx_ll_rcc.h:2905:22:LL_RCC_ReleaseBackupDomainReset	4	static
stm32wbxx_ll_rcc.h:4051:26:LL_RCC_IsActiveFlag_PINRST	4	static
stm32wbxx_ll_rcc.h:4061:26:LL_RCC_IsActiveFlag_SFTRST	4	static
stm32wbxx_ll_bus.h:540:22:LL_AHB2_GRP1_EnableClock	24	static
stm32wbxx_ll_bus.h:745:22:LL_AHB3_GRP1_EnableClock	24	static
stm32wbxx_ll_bus.h:940:22:LL_APB1_GRP1_EnableClock	24	static
stm32wbxx_ll_ipcc.h:313:22:LL_C1_IPCC_DisableTransmitChannel	16	static
stm32wbxx_ll_ipcc.h:382:22:LL_C1_IPCC_DisableReceiveChannel	16	static
stm32wbxx_ll_ipcc.h:451:22:LL_C2_IPCC_DisableTransmitChannel	16	static
stm32wbxx_ll_ipcc.h:520:22:LL_C2_IPCC_DisableReceiveChannel	16	static
stm32wbxx_ll_ipcc.h:575:22:LL_C1_IPCC_ClearFlag_CHx	16	static
stm32wbxx_ll_ipcc.h:646:22:LL_C2_IPCC_ClearFlag_CHx	16	static
stm32wbxx_ll_cortex.h:310:22:LL_LPM_EnableSleep	4	static
stm32wbxx_ll_hsem.h:233:26:LL_HSEM_1StepLock	16	static
stm32wbxx_ll_gpio.h:282:22:LL_GPIO_SetPinMode	48	static,ignoring_inline_asm
stm32wbxx_ll_gpio.h:949:22:LL_GPIO_TogglePin	24	static
stm32wbxx_ll_rtc.h:1033:22:LL_RTC_EnableWriteProtection	16	static
stm32wbxx_ll_rtc.h:1044:22:LL_RTC_DisableWriteProtection	16	static
stm32wbxx_ll_rtc.h:3002:22:LL_RTC_WAKEUP_SetClock	16	static
main.c:72:5:main	8	static
main.c:111:13:Init_Exti	8	static
main.c:120:13:Reset_Device	8	static
main.c:131:13:Reset_IPCC	8	static
main.c:168:13:Reset_BackupDomain	8	static
main.c:187:13:Init_RTC	8	static
main.c:233:6:SystemClock_Config	112	static
main.c:298:13:MX_GPIO_Init	8	static
main.c:314:6:HAL_Delay	24	static,ignoring_inline_asm
main.c:343:6:Error_Handler	4	static
