stm32wbxx_ll_bus.h:940:22:LL_APB1_GRP1_EnableClock	24	static
stm32wbxx_ll_bus.h:1039:22:LL_APB1_GRP1_DisableClock	16	static
usbd_conf.c:49:6:HAL_PCD_MspInit	16	static
usbd_conf.c:66:6:HAL_PCD_MspDeInit	16	static
usbd_conf.c:81:6:HAL_PCD_SetupStageCallback	16	static
usbd_conf.c:92:6:HAL_PCD_DataOutStageCallback	16	static
usbd_conf.c:103:6:HAL_PCD_DataInStageCallback	16	static
usbd_conf.c:113:6:HAL_PCD_SOFCallback	16	static
usbd_conf.c:123:6:HAL_PCD_ResetCallback	16	static
usbd_conf.c:137:6:HAL_PCD_SuspendCallback	16	static
usbd_conf.c:148:6:HAL_PCD_ResumeCallback	16	static
usbd_conf.c:159:6:HAL_PCD_ISOOUTIncompleteCallback	16	static
usbd_conf.c:170:6:HAL_PCD_ISOINIncompleteCallback	16	static
usbd_conf.c:180:6:HAL_PCD_ConnectCallback	16	static
usbd_conf.c:190:6:HAL_PCD_DisconnectCallback	16	static
usbd_conf.c:204:20:USBD_LL_Init	16	static
usbd_conf.c:233:20:USBD_LL_DeInit	16	static
usbd_conf.c:244:20:USBD_LL_Start	16	static
usbd_conf.c:255:20:USBD_LL_Stop	16	static
usbd_conf.c:269:20:USBD_LL_OpenEP	16	static
usbd_conf.c:284:20:USBD_LL_CloseEP	16	static
usbd_conf.c:296:20:USBD_LL_FlushEP	16	static
usbd_conf.c:308:20:USBD_LL_StallEP	16	static
usbd_conf.c:320:20:USBD_LL_ClearStallEP	16	static
usbd_conf.c:333:9:USBD_LL_IsStallEP	24	static
usbd_conf.c:353:20:USBD_LL_SetUSBAddress	16	static
usbd_conf.c:368:20:USBD_LL_Transmit	24	static
usbd_conf.c:384:20:USBD_LL_PrepareReceive	24	static
usbd_conf.c:398:10:USBD_LL_GetRxDataSize	16	static
usbd_conf.c:408:6:USBD_LL_Delay	16	static
usbd_conf.c:418:7:USBD_static_malloc	16	static
usbd_conf.c:429:6:USBD_static_free	16	static
